[
  {
    "id": "1",
    "siglaRede": "AF",
    "siglaProgramoteca": "AF9",
    "nome": "Automação das Forças de Venda e Campo",
    "dominioFuncional": "Canais Internos",
    "mainframe": "",
    "distribuidoWebUnix": "C Sharp   |   XML"
  },
  {
    "id": "2",
    "siglaRede": "AI",
    "siglaProgramoteca": "DV2",
    "nome": "WEB API Portal",
    "dominioFuncional": "Interface Relacionamento",
    "mainfarame": "",
    "distribuidoWebUnix": "C Ansi   |   C Sharp   |   Estilo   |   Html   |   Java Script   |   Perl   |   Shell Script   |   Sql   |   XML"
  },
  {
    "id": "3",
    "siglaRede": "AJ",
    "siglaProgramoteca": "AJ1",
    "nome": "Audit Trail",
    "dominioFuncional": "Suporte",
    "mainframe": "Cobol   |   DB2   |   JCL   |   Tela Cics",
    "distribuidoWebUnix": "Shell Script   |   Sql   |   XML"
  },
  {
    "id": "4",
    "siglaRede": "AP",
    "siglaProgramoteca": "DU9",
    "nome": "Application Portal Mobile",
    "dominioFuncional": "Meios de Relacionamento",
    "mainframe": "",
    "distribuidoWebUnix": ""
  },
  {
    "id": "5",
    "siglaRede": "AQ",
    "siglaProgramoteca": "AQ1",
    "nome": "Mis Acquire",
    "dominioFuncional": "Business Intelligence",
    "mainframe": "Cobol   |   DB2   |   JCL",
    "distribuidoWebUnix": "Shell Script   |   Sql   |   XML"
  },
  {
    "id": "6",
    "siglaRede": "AT",
    "siglaProgramoteca": "DT2",
    "nome": "Componentes da Arquitetura de TI",
    "dominioFuncional": "Desenvolvimento",
    "mainframe": "",
    "distribuidoWebUnix": ""
  },
  {
    "id": "7",
    "siglaRede": "AX",
    "siglaProgramoteca": "DX5",
    "nome": "Sigla incluída pelo Incode",
    "dominioFuncional": "",
    "mainframe": "Cobol",
    "distribuidoWebUnix": ""
  },
  {
    "id": "8",
    "siglaRede": "AZ",
    "siglaProgramoteca": "DZ2",
    "nome": "Sigla incluída pelo Incode",
    "dominioFuncional": "",
    "mainframe": "Cobol",
    "distribuidoWebUnix": ""
  },
  {
    "id": "9",
    "siglaRede": "BF",
    "siglaProgramoteca": "BF1",
    "nome": "Aplicações de Gestão de Configuração",
    "dominioFuncional": "Desenvolvimento",
    "mainframe": "",
    "distribuidoWebUnix": "Estilo   |   Html   |   Java   |   Java Script   |   XML"
  },
  {
    "id": "10",
    "siglaRede": "BI",
    "siglaProgramoteca": "BI1",
    "nome": "Microstrategy",
    "dominioFuncional": "Business Intelligence",
    "mainframe": "JCL",
    "distribuidoWebUnix": ""
  },
  {
    "id": "11",
    "siglaRede": "BT5",
    "siglaProgramoteca": "BU1",
    "nome": "Plataforma de deploy para meios de captura",
    "dominioFuncional": "Logística",
    "mainframe": "",
    "distribuidoWebUnix": "Awk   |   C Ansi   |   C Sharp   |   Cpp   |   Estilo   |   Java   |   Lua   |   Sql   |   Visual Basic   |   XML"
  },
  {
    "id": "12",
    "siglaRede": "CMIS",
    "siglaProgramoteca": "CM2",
    "nome": "Capacity Planning",
    "dominioFuncional": "Infraestrutura",
    "mainframe": "",
    "distribuidoWebUnix": ""
  },
  {
    "id": "13",
    "siglaRede": "DE",
    "siglaProgramoteca": "EC8",
    "nome": "Baixa, mascaramento e redução de dados",
    "dominioFuncional": "Desenvolvimento",
    "mainframe": "",
    "distribuidoWebUnix": ""
  },
  {
    "id": "14",
    "siglaRede": "DK",
    "siglaProgramoteca": "EK2",
    "nome": "Sigla incluída pelo Incode",
    "dominioFuncional": "",
    "mainframe": "Assembler   |   Cobol",
    "distribuidoWebUnix": ""
  },
  {
    "id": "15",
    "siglaRede": "DM",
    "siglaProgramoteca": "DM5",
    "nome": "DataERWIN Modeler (Repositório de modelos ERWIN)",
    "dominioFuncional": "Desenvolvimento",
    "mainframe": "JCL",
    "distribuidoWebUnix": ""
  },
  {
    "id": "16",
    "siglaRede": "DR",
    "siglaProgramoteca": "DR1",
    "nome": "Tabelas Corporativas Redecard",
    "dominioFuncional": "Corporativo",
    "mainframe": "Assembler   |   Cobol   |   DB2   |   JCL   |   Tela Cics",
    "distribuidoWebUnix": "Asp   |   ASP.Net   |   C Sharp   |   Cobol Unix/Windows   |   Delphi   |   Estilo   |   Html   |   Java Script   |   PHP   |   Shell Script   |   Sql   |   VB.Net   |   Visual Basic   |   XML"
  },
  {
    "id": "17",
    "siglaRede": "DV",
    "siglaProgramoteca": "EV2",
    "nome": "Sigla incluída pelo Incode",
    "dominioFuncional": "",
    "mainframe": "Cobol   |   JCL   |   Tela Cics",
    "distribuidoWebUnix": ""
  },
  {
    "id": "18",
    "siglaRede": "DW",
    "siglaProgramoteca": "DW3",
    "nome": "Redecard Data Warehouse",
    "dominioFuncional": "Business Intelligence",
    "mainframe": "Cobol   |   Easytrieve   |   JCL",
    "distribuidoWebUnix": "C Ansi   |   Shell Script   |   Sql   |   XML"
  },
  {
    "id": "19",
    "siglaRede": "Dwi",
    "siglaProgramoteca": "DW4",
    "nome": "Data Warehouse - Integrações Etl",
    "dominioFuncional": "Business Intelligence",
    "mainframe": "",
    "distribuidoWebUnix": "Shell Script   |   XML"
  },
  {
    "id": "20",
    "siglaRede": "DX",
    "siglaProgramoteca": "EX2",
    "nome": "Sigla incluída pelo Incode",
    "dominioFuncional": "",
    "mainframe": "JCL   |   Pli",
    "distribuidoWebUnix": ""
  },
  {
    "id": "21",
    "siglaRede": "DY9",
    "siglaProgramoteca": "DY9",
    "nome": "Monitor de Transações e experiência do Usuário",
    "dominioFuncional": "Não Selecionado",
    "mainframe": "",
    "distribuidoWebUnix": ""
  },
  {
    "id": "22",
    "siglaRede": "EA2",
    "siglaProgramoteca": "EA2",
    "nome": "e-asy (Autorizadores e conectores)",
    "dominioFuncional": "Captura",
    "mainframe": "",
    "distribuidoWebUnix": "C Ansi   |   Cpp   |   Java   |   Lua   |   Sql   |   XML"
  },
  {
    "id": "23",
    "siglaRede": "EB",
    "siglaProgramoteca": "EB1",
    "nome": "Monitoração De Perfomance",
    "dominioFuncional": "Risco e Fraude",
    "mainframe": "JCL",
    "distribuidoWebUnix": "Asp   |   ASP.Net   |   C Sharp   |   Estilo   |   Java   |   Java Script   |   Shell Script   |   Sql   |   XML"
  },
  {
    "id": "24",
    "siglaRede": "EBm",
    "siglaProgramoteca": "EB2",
    "nome": "Consulta Às Listas De Risco",
    "dominioFuncional": "Risco e Fraude",
    "mainframe": "",
    "distribuidoWebUnix": "Asp   |   ASP.Net   |   C Sharp   |   Estilo   |   Java   |   Java Script   |   Shell Script   |   Sql   |   XML"
  },
  {
    "id": "25",
    "siglaRede": "EC",
    "siglaProgramoteca": "EC3",
    "nome": "Komerci - Captura Online Internet",
    "dominioFuncional": "Interface Captura",
    "mainframe": "",
    "distribuidoWebUnix": "Asp   |   ASP.Net   |   C Ansi   |   C Sharp   |   Cpp   |   Estilo   |   Html   |   Java Script   |   Lua   |   Sql   |   VB.Net   |   Visual Basic   |   XML"
  },
  {
    "id": "26",
    "siglaRede": "EC2",
    "siglaProgramoteca": "EC2",
    "nome": "Monitoração",
    "dominioFuncional": "Infraestrutura",
    "mainframe": "",
    "distribuidoWebUnix": "Estilo   |   Html   |   Java   |   Java Script   |   Sql   |   XML"
  },
  {
    "id": "27",
    "siglaRede": "EF",
    "siglaProgramoteca": "EF1",
    "nome": "Despesas de Funcionários",
    "dominioFuncional": "RH",
    "mainframe": "JCL",
    "distribuidoWebUnix": "Asp   |   Java Script   |   Shell Script   |   Sql   |   VB.Net   |   Visual Basic   |   XML"
  },
  {
    "id": "28",
    "siglaRede": "EH2",
    "siglaProgramoteca": "EH2",
    "nome": "Captura via WEB e SWS",
    "dominioFuncional": "Interface Captura",
    "mainframe": "",
    "distribuidoWebUnix": "C Ansi   |   C Sharp   |   Cpp   |   Html   |   XML"
  },
  {
    "id": "29",
    "siglaRede": "EN",
    "siglaProgramoteca": "EN2",
    "nome": "Sigla incluída pelo Incode",
    "dominioFuncional": "",
    "mainframe": "Assembler",
    "distribuidoWebUnix": ""
  },
  {
    "id": "30",
    "siglaRede": "EP",
    "siglaProgramoteca": "EP2",
    "nome": "Edit Package Visa",
    "dominioFuncional": "Bandeiras, Emissores e Parceir",
    "mainframe": "Assembler   |   Cobol   |   JCL",
    "distribuidoWebUnix": ""
  },
  {
    "id": "31",
    "siglaRede": "ER",
    "siglaProgramoteca": "ER1",
    "nome": "Monitoração De Risco Em Estabelecimentos",
    "dominioFuncional": "Risco e Fraude",
    "mainframe": "Cobol   |   DB2   |   JCL",
    "distribuidoWebUnix": "Asp   |   ASP.Net   |   C Sharp   |   Delphi   |   Estilo   |   Html   |   Java Script   |   PHP   |   Shell Script   |   Sql   |   XML"
  },
  {
    "id": "32",
    "siglaRede": "ER2",
    "siglaProgramoteca": "ER2",
    "nome": "Retaguarda (Gestão/Backoffice)",
    "dominioFuncional": "Canais Internos",
    "mainframe": "",
    "distribuidoWebUnix": "C Ansi   |   Estilo   |   Html   |   Java   |   Java Script   |   Sql   |   XML"
  },
  {
    "id": "33",
    "siglaRede": "FA2",
    "siglaProgramoteca": "FA2",
    "nome": "ARTIFACTORY - Gestão de Binários",
    "dominioFuncional": "Desenvolvimento",
    "mainframe": "",
    "distribuidoWebUnix": ""
  },
  {
    "id": "34",
    "siglaRede": "FB",
    "siglaProgramoteca": "FB1",
    "nome": "Serviços Financeiros Para Bancos",
    "dominioFuncional": "Órgãos Reguladores",
    "mainframe": "Cobol   |   DB2   |   JCL",
    "distribuidoWebUnix": "Asp   |   ASP.Net   |   C Sharp   |   Cobol Unix/Windows   |   Estilo   |   Java Script   |   Shell Script   |   Sql   |   Visual Basic   |   XML"
  },
  {
    "id": "35",
    "siglaRede": "FC",
    "siglaProgramoteca": "FC2",
    "nome": "Força de Campo - Mobile",
    "dominioFuncional": "Canais Internos",
    "mainframe": "",
    "distribuidoWebUnix": ""
  },
  {
    "id": "36",
    "siglaRede": "FE",
    "siglaProgramoteca": "FE1",
    "nome": "Fraude Estabelecimentos",
    "dominioFuncional": "Risco e Fraude",
    "mainframe": "Cobol   |   DB2   |   JCL   |   Tela Cics",
    "distribuidoWebUnix": "Asp   |   ASP.Net   |   C Ansi   |   C Sharp   |   Cobol Unix/Windows   |   Cpp   |   Delphi   |   Estilo   |   Html   |   Java   |   Java Script   |   Shell Script   |   Sql   |   XML"
  },
  {
    "id": "37",
    "siglaRede": "FMS",
    "siglaProgramoteca": "FM3",
    "nome": "Sistema De Gerenciamento De Fraudes",
    "dominioFuncional": "Risco e Fraude",
    "mainframe": "",
    "distribuidoWebUnix": "C Sharp   |   Shell Script   |   Sql   |   XML"
  },
  {
    "id": "38",
    "siglaRede": "FR",
    "siglaProgramoteca": "FR2",
    "nome": "Sigla incluída pelo Incode",
    "dominioFuncional": "",
    "mainframe": "Cobol",
    "distribuidoWebUnix": ""
  },
  {
    "id": "39",
    "siglaRede": "FU2",
    "siglaProgramoteca": "FU2",
    "nome": "CONFLUENCE - Gestão de conteúdo",
    "dominioFuncional": "Desenvolvimento",
    "mainframe": "",
    "distribuidoWebUnix": ""
  },
  {
    "id": "40",
    "siglaRede": "FV",
    "siglaProgramoteca": "FV2",
    "nome": "Força de Vendas - Mobile",
    "dominioFuncional": "Canais Internos",
    "mainframe": "",
    "distribuidoWebUnix": ""
  },
  {
    "id": "41",
    "siglaRede": "GA",
    "siglaProgramoteca": "GA2",
    "nome": "Gestão De Auditoria",
    "dominioFuncional": "Auditoria",
    "mainframe": "JCL",
    "distribuidoWebUnix": "C Ansi   |   Java   |   Shell Script   |   Sql"
  },
  {
    "id": "42",
    "siglaRede": "GC",
    "siglaProgramoteca": "GC2",
    "nome": "Gateway de Criptografia",
    "dominioFuncional": "Interface Relacionamento",
    "mainframe": "",
    "distribuidoWebUnix": ""
  },
  {
    "id": "43",
    "siglaRede": "GE",
    "siglaProgramoteca": "GE1",
    "nome": "Gerenciador De Estabelecimentos",
    "dominioFuncional": "Estabelecimentos",
    "mainframe": "Assembler   |   Cobol   |   DB2   |   JCL   |   Pli   |   Tela Cics",
    "distribuidoWebUnix": "Asp   |   ASP.Net   |   C Ansi   |   C Sharp   |   Cobol Unix/Windows   |   Cpp   |   Estilo   |   Html   |   Java   |   Java Script   |   Shell Script   |   Sql   |   Visual Basic   |   XML"
  },
  {
    "id": "44",
    "siglaRede": "GF",
    "siglaProgramoteca": "GF1",
    "nome": "Sistema do Fiscal - Contábil",
    "dominioFuncional": "Financeiro",
    "mainframe": "",
    "distribuidoWebUnix": ""
  },
  {
    "id": "45",
    "siglaRede": "GI",
    "siglaProgramoteca": "GI2",
    "nome": "Gateway Ipiranga",
    "dominioFuncional": "Captura",
    "mainframe": "",
    "distribuidoWebUnix": ""
  },
  {
    "id": "46",
    "siglaRede": "GK",
    "siglaProgramoteca": "GK1",
    "nome": "Grade De Compensação Transações De Débito",
    "dominioFuncional": "Liquidação",
    "mainframe": "Cobol   |   DB2   |   Easytrieve   |   JCL   |   Pli   |   Tela Cics",
    "distribuidoWebUnix": ""
  },
  {
    "id": "47",
    "siglaRede": "GL8",
    "siglaProgramoteca": "GL8",
    "nome": "GITLAB - Gestão do código fonte",
    "dominioFuncional": "Desenvolvimento",
    "mainframe": "",
    "distribuidoWebUnix": ""
  },
  {
    "id": "48",
    "siglaRede": "GO2",
    "siglaProgramoteca": "GO2",
    "nome": "GOCD - Gestão Pipelines para Entrega Contínua",
    "dominioFuncional": "Desenvolvimento",
    "mainframe": "",
    "distribuidoWebUnix": ""
  },
  {
    "id": "49",
    "siglaRede": "GS",
    "siglaProgramoteca": "GS1",
    "nome": "Gerenciamento De Suprimentos",
    "dominioFuncional": "Logística",
    "mainframe": "Cobol   |   Easytrieve   |   JCL",
    "distribuidoWebUnix": "Asp   |   ASP.Net   |   C Sharp   |   Delphi   |   Estilo   |   Html   |   Java Script   |   Shell Script   |   Sql   |   Visual Basic   |   XML"
  },
  {
    "id": "50",
    "siglaRede": "GT",
    "siglaProgramoteca": "GT2",
    "nome": "Legato - Project Portfolio Management",
    "dominioFuncional": "Desenvolvimento",
    "mainframe": "",
    "distribuidoWebUnix": ""
  },
  {
    "id": "51",
    "siglaRede": "GU",
    "siglaProgramoteca": "GU1",
    "nome": "Tarifador De Telecom",
    "dominioFuncional": "Infraestrutura",
    "mainframe": "",
    "distribuidoWebUnix": ""
  },
  {
    "id": "52",
    "siglaRede": "GW",
    "siglaProgramoteca": "GW1",
    "nome": "Relacionamento Com Cliente Gateway",
    "dominioFuncional": "Interface Relacionamento",
    "mainframe": "Cobol   |   DB2   |   JCL",
    "distribuidoWebUnix": "Cobol Unix/Windows   |   Shell Script   |   Sql   |   VB.Net   |   Visual Basic   |   XML"
  },
  {
    "id": "53",
    "siglaRede": "GX",
    "siglaProgramoteca": "GX2",
    "nome": "Gsfax",
    "dominioFuncional": "Interface Relacionamento",
    "mainframe": "",
    "distribuidoWebUnix": ""
  },
  {
    "id": "54",
    "siglaRede": "GY3",
    "siglaProgramoteca": "GY3",
    "nome": "Gateway de Mensageria",
    "dominioFuncional": "Interface Relacionamento",
    "mainframe": "",
    "distribuidoWebUnix": "Estilo   |   Html   |   Java   |   Shell Script   |   Sql"
  },
  {
    "id": "55",
    "siglaRede": "HE",
    "siglaProgramoteca": "HE4",
    "nome": "Help Desk de Estabelecimentos",
    "dominioFuncional": "Estabelecimentos",
    "mainframe": "Assembler   |   Cobol   |   DB2   |   Easytrieve   |   JCL   |   Tela Cics",
    "distribuidoWebUnix": ""
  },
  {
    "id": "56",
    "siglaRede": "IC",
    "siglaProgramoteca": "IC2",
    "nome": "Sistema do Fiscal - Integrador Contábil",
    "dominioFuncional": "Financeiro",
    "mainframe": "",
    "distribuidoWebUnix": ""
  },
  {
    "id": "57",
    "siglaRede": "IC3",
    "siglaProgramoteca": "IC3",
    "nome": "API integração entre fer. Gestão de Config",
    "dominioFuncional": "Desenvolvimento",
    "mainframe": "",
    "distribuidoWebUnix": ""
  },
  {
    "id": "58",
    "siglaRede": "IG",
    "siglaProgramoteca": "IG1",
    "nome": "Interchange off-us MCI",
    "dominioFuncional": "Bandeiras, Emissores e Parceir",
    "mainframe": "Cobol   |   DB2   |   JCL   |   Pli",
    "distribuidoWebUnix": "Asp   |   ASP.Net   |   Awk   |   C Ansi   |   C Sharp   |   Cobol Unix/Windows   |   Cpp   |   Estilo   |   Java Script   |   Shell Script   |   Sql   |   VB.Net   |   Visual Basic   |   XML"
  },
  {
    "id": "59",
    "siglaRede": "II",
    "siglaProgramoteca": "II2",
    "nome": "Sigla incluída pelo Incode",
    "dominioFuncional": "",
    "mainframe": "Cobol",
    "distribuidoWebUnix": ""
  },
  {
    "id": "60",
    "siglaRede": "IN",
    "siglaProgramoteca": "IN3",
    "nome": "Incode",
    "dominioFuncional": "Suporte",
    "mainframe": "",
    "distribuidoWebUnix": ""
  },
  {
    "id": "61",
    "siglaRede": "IQ",
    "siglaProgramoteca": "IQ3",
    "nome": "Medições de eficiência e perfomance - Infra",
    "dominioFuncional": "Infraestrutura",
    "mainframe": "JCL",
    "distribuidoWebUnix": ""
  },
  {
    "id": "62",
    "siglaRede": "IS",
    "siglaProgramoteca": "IT9",
    "nome": "Internet Services",
    "dominioFuncional": "Meios de Relacionamento",
    "mainframe": "Cobol",
    "distribuidoWebUnix": "Asp   |   ASP.Net   |   C Sharp   |   Cobol Unix/Windows   |   Estilo   |   Html   |   Java Script   |   Perl   |   PHP   |   Shell Script   |   Sql   |   Vb Script   |   VB.Net   |   Visual Basic   |   XML"
  },
  {
    "id": "63",
    "siglaRede": "IZ",
    "siglaProgramoteca": "JA1",
    "nome": "Intranet Corporativa Rede",
    "dominioFuncional": "Canais Internos",
    "mainframe": "",
    "distribuidoWebUnix": "Asp   |   ASP.Net   |   C Sharp   |   Cobol Unix/Windows   |   Delphi   |   Estilo   |   Html   |   Java Script   |   Sql   |   Vb Script   |   VB.Net   |   Visual Basic   |   XML"
  },
  {
    "id": "64",
    "siglaRede": "JI2",
    "siglaProgramoteca": "JI2",
    "nome": "JIRA - Gestão de Workflows e Projetos Ágeis",
    "dominioFuncional": "Desenvolvimento",
    "mainframe": "",
    "distribuidoWebUnix": ""
  },
  {
    "id": "65",
    "siglaRede": "JK2",
    "siglaProgramoteca": "JK2",
    "nome": "JENKINS - Servidor Web Integração Contínua",
    "dominioFuncional": "Desenvolvimento",
    "mainframe": "",
    "distribuidoWebUnix": ""
  },
  {
    "id": "66",
    "siglaRede": "KA",
    "siglaProgramoteca": "KA1",
    "nome": "Cálculo E Distribuição",
    "dominioFuncional": "Processamento",
    "mainframe": "Cobol   |   DB2   |   JCL   |   Pli",
    "distribuidoWebUnix": "XML"
  },
  {
    "id": "67",
    "siglaRede": "KB",
    "siglaProgramoteca": "KB1",
    "nome": "Bancos Pagamento A Estabelecimentos",
    "dominioFuncional": "Liquidação",
    "mainframe": "Cobol   |   DB2   |   JCL   |   Tela Cics",
    "distribuidoWebUnix": ""
  },
  {
    "id": "68",
    "siglaRede": "KC",
    "siglaProgramoteca": "KC1",
    "nome": "Cancelamento De Transações",
    "dominioFuncional": "Processamento",
    "mainframe": "Cobol   |   DB2   |   JCL   |   Tela Cics",
    "distribuidoWebUnix": "C Sharp   |   XML"
  },
  {
    "id": "69",
    "siglaRede": "KD",
    "siglaProgramoteca": "KD1",
    "nome": "Análise De Contas Contábeis",
    "dominioFuncional": "Processamento",
    "mainframe": "Cobol   |   DB2   |   JCL   |   Tela Cics",
    "distribuidoWebUnix": "Delphi   |   Visual Basic"
  },
  {
    "id": "71",
    "siglaRede": "KI",
    "siglaProgramoteca": "KI1",
    "nome": "Sistema de Alçadas",
    "dominioFuncional": "Corporativo",
    "mainframe": "Cobol   |   DB2   |   JCL",
    "distribuidoWebUnix": "ASP.Net   |   C Sharp   |   Estilo   |   Java Script   |   XML"
  },
  {
    "id": "72",
    "siglaRede": "KMS",
    "siglaProgramoteca": "KM2",
    "nome": "Gerenciador De Chaves De Criptografia",
    "dominioFuncional": "Captura",
    "mainframe": "",
    "distribuidoWebUnix": ""
  },
  {
    "id": "73",
    "siglaRede": "KN",
    "siglaProgramoteca": "KN1",
    "nome": "Contas A Receber",
    "dominioFuncional": "Processamento",
    "mainframe": "Cobol   |   DB2   |   JCL   |   Tela Cics",
    "distribuidoWebUnix": "ASP.Net   |   C Sharp   |   Estilo   |   Html   |   Java Script   |   XML"
  },
  {
    "id": "74",
    "siglaRede": "KP",
    "siglaProgramoteca": "KP1",
    "nome": "Retenção De Crédito",
    "dominioFuncional": "Liquidação",
    "mainframe": "Cobol   |   DB2   |   JCL   |   Tela Cics",
    "distribuidoWebUnix": "C Sharp   |   XML"
  },
  {
    "id": "75",
    "siglaRede": "KR",
    "siglaProgramoteca": "KR2",
    "nome": "Sigla incluída pelo Incode",
    "dominioFuncional": "",
    "mainframe": "Cobol   |   Tela Cics",
    "distribuidoWebUnix": ""
  },
  {
    "id": "76",
    "siglaRede": "LA2",
    "siglaProgramoteca": "LA2",
    "nome": "API Portal",
    "dominioFuncional": "Meios de Relacionamento",
    "mainframe": "",
    "distribuidoWebUnix": ""
  },
  {
    "id": "77",
    "siglaRede": "LF3",
    "siglaProgramoteca": "LF3",
    "nome": "Plataforma de Dados",
    "dominioFuncional": "Business Intelligence",
    "mainframe": "",
    "distribuidoWebUnix": ""
  },
  {
    "id": "78",
    "siglaRede": "LM1",
    "siglaProgramoteca": "LM1",
    "nome": "Monitor de Transações e experiência do Usuário",
    "dominioFuncional": "Meios de Relacionamento",
    "mainframe": "",
    "distribuidoWebUnix": ""
  },
  {
    "id": "79",
    "siglaRede": "LV",
    "siglaProgramoteca": "LV1",
    "nome": "Analisador de Logs Switch",
    "dominioFuncional": "Captura",
    "mainframe": "",
    "distribuidoWebUnix": "Asp   |   C Ansi   |   Cpp   |   Estilo   |   Html   |   Java Script   |   Shell Script   |   Sql   |   XML"
  },
  {
    "id": "80",
    "siglaRede": "LX",
    "siglaProgramoteca": "LX1",
    "nome": "Informações de Transações Capturadas",
    "dominioFuncional": "Órgãos Reguladores",
    "mainframe": "Cobol   |   DB2   |   JCL   |   Tela Cics",
    "distribuidoWebUnix": ""
  },
  {
    "id": "81",
    "siglaRede": "MA",
    "siglaProgramoteca": "MA1",
    "nome": "Antecipação de Recebiveis (RAV)",
    "dominioFuncional": "Liquidação",
    "mainframe": "Cobol   |   DB2   |   JCL   |   Tela Cics",
    "distribuidoWebUnix": "C Sharp   |   Sql   |   XML"
  },
  {
    "id": "82",
    "siglaRede": "MC",
    "siglaProgramoteca": "MC2",
    "nome": "Acl Analytics And Continuous Monitoring",
    "dominioFuncional": "Auditoria",
    "mainframe": "",
    "distribuidoWebUnix": ""
  },
  {
    "id": "83",
    "siglaRede": "MC3",
    "siglaProgramoteca": "MC3",
    "nome": "Mission Control",
    "dominioFuncional": "Logística",
    "mainframe": "",
    "distribuidoWebUnix": ""
  },
  {
    "id": "84",
    "siglaRede": "ME",
    "siglaProgramoteca": "ME1",
    "nome": "Base de Transações",
    "dominioFuncional": "Processamento",
    "mainframe": "Cobol   |   DB2   |   JCL   |   Pli",
    "distribuidoWebUnix": "ASP.Net   |   C Sharp   |   Estilo   |   Java Script   |   XML"
  },
  {
    "id": "85",
    "siglaRede": "MHa",
    "siglaProgramoteca": "MH2",
    "nome": "MHPF - Member Host Preparation Facility",
    "dominioFuncional": "Bandeiras, Emissores e Parceir",
    "mainframe": "",
    "distribuidoWebUnix": ""
  },
  {
    "id": "86",
    "siglaRede": "MI",
    "siglaProgramoteca": "MI2",
    "nome": "Mobile Interface",
    "dominioFuncional": "Interface Captura",
    "mainframe": "",
    "distribuidoWebUnix": "C Sharp   |   Estilo   |   Html   |   Java Script   |   Sql   |   XML"
  },
  {
    "id": "87",
    "siglaRede": "MIR",
    "siglaProgramoteca": "MI3",
    "nome": "Monitoração FlexVision",
    "dominioFuncional": "Infraestrutura",
    "mainframe": "",
    "distribuidoWebUnix": ""
  },
  {
    "id": "88",
    "siglaRede": "MK",
    "siglaProgramoteca": "MK2",
    "nome": "Marketplace",
    "dominioFuncional": "Logística",
    "mainframe": "",
    "distribuidoWebUnix": ""
  },
  {
    "id": "89",
    "siglaRede": "MO",
    "siglaProgramoteca": "MO1",
    "nome": "Mobile",
    "dominioFuncional": "Meios de Captura",
    "mainframe": "JCL",
    "distribuidoWebUnix": ""
  },
  {
    "id": "90",
    "siglaRede": "MP",
    "siglaProgramoteca": "MP1",
    "nome": "Gerenciador de Protocolos",
    "dominioFuncional": "Interface Captura",
    "mainframe": "JCL",
    "distribuidoWebUnix": "C Ansi   |   Cpp   |   Shell Script   |   XML"
  },
  {
    "id": "91",
    "siglaRede": "MX5",
    "siglaProgramoteca": "MX5",
    "nome": "Gateway de Pagamentos maxiPago!",
    "dominioFuncional": "Interface Captura",
    "mainframe": "",
    "distribuidoWebUnix": ""
  },
  {
    "id": "92",
    "siglaRede": "MY3",
    "siglaProgramoteca": "MY3",
    "nome": "Aplicativo de Pagamento Poynt",
    "dominioFuncional": "Meios de Captura",
    "mainframe": "",
    "distribuidoWebUnix": ""
  },
  {
    "id": "93",
    "siglaRede": "NC",
    "siglaProgramoteca": "NC1",
    "nome": "Clearing",
    "dominioFuncional": "Bandeiras, Emissores e Parceir",
    "mainframe": "Cobol   |   DB2   |   JCL",
    "distribuidoWebUnix": "XML"
  },
  {
    "id": "94",
    "siglaRede": "NK",
    "siglaProgramoteca": "NK1",
    "nome": "Débitos À Estabelecimentos",
    "dominioFuncional": "Liquidação",
    "mainframe": "Cobol   |   DB2   |   Easytrieve   |   JCL   |   Tela Cics",
    "distribuidoWebUnix": ""
  },
  {
    "id": "95",
    "siglaRede": "OL",
    "siglaProgramoteca": "OL6",
    "nome": "Captura Offline",
    "dominioFuncional": "Captura",
    "mainframe": "Cobol   |   Easytrieve   |   JCL",
    "distribuidoWebUnix": "Awk   |   C Ansi   |   C Sharp   |   Cpp   |   Delphi   |   Estilo   |   Html   |   Java Script   |   Shell Script   |   Sql   |   XML"
  },
  {
    "id": "96",
    "siglaRede": "OM",
    "siglaProgramoteca": "OO7",
    "nome": "Gestão Orçamentária",
    "dominioFuncional": "Financeiro",
    "mainframe": "",
    "distribuidoWebUnix": ""
  },
  {
    "id": "97",
    "siglaRede": "PB",
    "siglaProgramoteca": "PB9",
    "nome": "Captura Online Redeshop Voucher E Private Label 1",
    "dominioFuncional": "Processamento",
    "mainframe": "Assembler   |   Cobol   |   DB2   |   Easytrieve   |   JCL   |   Pli   |   Tela Cics",
    "distribuidoWebUnix": ""
  },
  {
    "id": "98",
    "siglaRede": "PD",
    "siglaProgramoteca": "PE6",
    "nome": "Portal DW",
    "dominioFuncional": "Business Intelligence",
    "mainframe": "JCL",
    "distribuidoWebUnix": ""
  },
  {
    "id": "100",
    "siglaRede": "PDV",
    "siglaProgramoteca": "PD9",
    "nome": "TEF e PINPad em Meios de Captura",
    "dominioFuncional": "Meios de Captura",
    "mainframe": "",
    "distribuidoWebUnix": ""
  },
  {
    "id": "101",
    "siglaRede": "PE",
    "siglaProgramoteca": "PE7",
    "nome": "Ponto Eletrônico",
    "dominioFuncional": "RH",
    "mainframe": "",
    "distribuidoWebUnix": "Sql"
  },
  {
    "id": "102",
    "siglaRede": "PG",
    "siglaProgramoteca": "PG2",
    "nome": "Sigla incluída pelo Incode",
    "dominioFuncional": "",
    "mainframe": "Tela Cics",
    "distribuidoWebUnix": ""
  },
  {
    "id": "103",
    "siglaRede": "PG3",
    "siglaProgramoteca": "PG3",
    "nome": "Plataforma de Comprovantes",
    "dominioFuncional": "Interface Relacionamento",
    "mainframe": "",
    "distribuidoWebUnix": "Java   |   Shell Script   |   Sql"
  },
  {
    "id": "104",
    "siglaRede": "PI",
    "siglaProgramoteca": "PI2",
    "nome": "P.O.S. 2",
    "dominioFuncional": "Meios de Captura",
    "mainframe": "",
    "distribuidoWebUnix": "XML"
  },
  {
    "id": "105",
    "siglaRede": "PL",
    "siglaProgramoteca": "PL2",
    "nome": "Planejamento Logistico",
    "dominioFuncional": "Logística",
    "mainframe": "",
    "distribuidoWebUnix": ""
  },
  {
    "id": "106",
    "siglaRede": "PM",
    "siglaProgramoteca": "PM2",
    "nome": "Phast Manager",
    "dominioFuncional": "Logística",
    "mainframe": "",
    "distribuidoWebUnix": ""
  },
  {
    "id": "107",
    "siglaRede": "PN",
    "siglaProgramoteca": "PN1",
    "nome": "Novo Portal Redecard",
    "dominioFuncional": "Meios de Relacionamento",
    "mainframe": "",
    "distribuidoWebUnix": "Asp   |   ASP.Net   |   C Ansi   |   C Sharp   |   Cobol Unix/Windows   |   Estilo   |   Html   |   Java Script   |   Shell Script   |   Sql   |   XML"
  },
  {
    "id": "108",
    "siglaRede": "POS",
    "siglaProgramoteca": "PO2",
    "nome": "P.O.S.",
    "dominioFuncional": "Meios de Captura",
    "mainframe": "",
    "distribuidoWebUnix": "C Ansi   |   Cpp   |   Lua"
  },
  {
    "id": "109",
    "siglaRede": "PR",
    "siglaProgramoteca": "PR1",
    "nome": "Parcelado Redecard",
    "dominioFuncional": "Liquidação",
    "mainframe": "Cobol   |   DB2   |   JCL",
    "distribuidoWebUnix": "C Sharp   |   Cobol Unix/Windows   |   Estilo   |   Html   |   Java Script   |   VB.Net   |   XML"
  },
  {
    "id": "110",
    "siglaRede": "PRF",
    "siglaProgramoteca": "PR2",
    "nome": "POS RedeFlex em Meios de Captura",
    "dominioFuncional": "Meios de Captura",
    "mainframe": "",
    "distribuidoWebUnix": "C Ansi   |   Lua"
  },
  {
    "id": "111",
    "siglaRede": "PS",
    "siglaProgramoteca": "PS2",
    "nome": "Phast Server",
    "dominioFuncional": "Captura",
    "mainframe": "",
    "distribuidoWebUnix": ""
  },
  {
    "id": "112",
    "siglaRede": "PV",
    "siglaProgramoteca": "PV1",
    "nome": "Captura Online Redeshop Voucher E Private Label 2",
    "dominioFuncional": "Processamento",
    "mainframe": "",
    "distribuidoWebUnix": ""
  },
  {
    "id": "113",
    "siglaRede": "PY2",
    "siglaProgramoteca": "PY2",
    "nome": "API Gateway",
    "dominioFuncional": "Interface Relacionamento",
    "mainframe": "",
    "distribuidoWebUnix": ""
  },
  {
    "id": "114",
    "siglaRede": "QA",
    "siglaProgramoteca": "QA1",
    "nome": "Processamento de Transações de Serviços",
    "dominioFuncional": "Processamento",
    "mainframe": "Cobol   |   DB2   |   JCL",
    "distribuidoWebUnix": ""
  },
  {
    "id": "115",
    "siglaRede": "QC",
    "siglaProgramoteca": "QC1",
    "nome": "Gestão de Serviços",
    "dominioFuncional": "Parceiros",
    "mainframe": "",
    "distribuidoWebUnix": "ASP.Net   |   C Sharp   |   Cpp   |   Estilo   |   Java Script   |   Shell Script   |   Sql   |   XML"
  },
  {
    "id": "116",
    "siglaRede": "QE",
    "siglaProgramoteca": "QE1",
    "nome": "Base de Transações de Serviço",
    "dominioFuncional": "Processamento",
    "mainframe": "Cobol   |   DB2   |   JCL",
    "distribuidoWebUnix": ""
  },
  {
    "id": "117",
    "siglaRede": "QH",
    "siglaProgramoteca": "QH1",
    "nome": "Solução de Serviços",
    "dominioFuncional": "Captura",
    "mainframe": "",
    "distribuidoWebUnix": "ASP.Net   |   C Sharp   |   Cpp   |   Estilo   |   Java Script   |   Shell Script   |   Sql   |   XML"
  },
  {
    "id": "118",
    "siglaRede": "QI",
    "siglaProgramoteca": "QI1",
    "nome": "Informações De Qualidade",
    "dominioFuncional": "Canais Internos",
    "mainframe": "Cobol   |   DB2   |   JCL   |   Tela Cics",
    "distribuidoWebUnix": "Asp   |   ASP.Net   |   C Sharp   |   Cobol Unix/Windows   |   Estilo   |   Html   |   Java Script   |   Sql   |   VB.Net   |   Visual Basic   |   XML"
  },
  {
    "id": "119",
    "siglaRede": "QR",
    "siglaProgramoteca": "QR1",
    "nome": "Interface com Parceiros",
    "dominioFuncional": "Bandeiras, Emissores e Parceir",
    "mainframe": "Cobol   |   DB2   |   JCL",
    "distribuidoWebUnix": ""
  },
  {
    "id": "120",
    "siglaRede": "QV",
    "siglaProgramoteca": "QV1",
    "nome": "Interface Ura (Quality Voice Rede)",
    "dominioFuncional": "Interface Relacionamento",
    "mainframe": "Cobol   |   DB2   |   JCL   |   Tela Cics",
    "distribuidoWebUnix": ""
  },
  {
    "id": "121",
    "siglaRede": "QX",
    "siglaProgramoteca": "QX1",
    "nome": "Contestação de Serviços",
    "dominioFuncional": "Processamento",
    "mainframe": "Cobol   |   JCL",
    "distribuidoWebUnix": ""
  },
  {
    "id": "122",
    "siglaRede": "RA3",
    "siglaProgramoteca": "RA3",
    "nome": "Loja de Aplicativos Smart Rede",
    "dominioFuncional": "Meios de Relacionamento",
    "mainframe": "",
    "distribuidoWebUnix": ""
  },
  {
    "id": "123",
    "siglaRede": "RB3",
    "siglaProgramoteca": "RB3",
    "nome": "Formatação do contas à receber",
    "dominioFuncional": "Processamento",
    "mainframe": "",
    "distribuidoWebUnix": ""
  },
  {
    "id": "124",
    "siglaRede": "RC",
    "siglaProgramoteca": "RC1",
    "nome": "Jobnames Desenvolvimento Rede",
    "dominioFuncional": "Infraestrutura",
    "mainframe": "",
    "distribuidoWebUnix": ""
  },
  {
    "id": "125",
    "siglaRede": "RHr",
    "siglaProgramoteca": "RH2",
    "nome": "Sistema de Recursos Humanos da Rede",
    "dominioFuncional": "RH",
    "mainframe": "",
    "distribuidoWebUnix": "Asp   |   ASP.Net   |   C Sharp   |   Delphi   |   Shell Script   |   Sql   |   Visual Basic   |   XML"
  },
  {
    "id": "126",
    "siglaRede": "RQ",
    "siglaProgramoteca": "RQ1",
    "nome": "Pré Pagamento Com Emissores",
    "dominioFuncional": "Bandeiras, Emissores e Parceir",
    "mainframe": "",
    "distribuidoWebUnix": "Asp   |   ASP.Net   |   C Sharp   |   Estilo   |   Java Script   |   Shell Script   |   Sql   |   XML"
  },
  {
    "id": "128",
    "siglaRede": "RR",
    "siglaProgramoteca": "RR3",
    "nome": "Rotinas de Backup Rede",
    "dominioFuncional": "Infraestrutura",
    "mainframe": "",
    "distribuidoWebUnix": ""
  },
  {
    "id": "129",
    "siglaRede": "RT3",
    "siglaProgramoteca": "RT3",
    "nome": "Quality Assurance - Rede Sefl Test Plataform",
    "dominioFuncional": "Desenvolvimento",
    "mainframe": "",
    "distribuidoWebUnix": ""
  },
  {
    "id": "130",
    "siglaRede": "RU",
    "siglaProgramoteca": "RU1",
    "nome": "Sistema de Recursos Humanos",
    "dominioFuncional": "RH",
    "mainframe": "Cobol   |   DB2   |   JCL",
    "distribuidoWebUnix": ""
  },
  {
    "id": "131",
    "siglaRede": "RV",
    "siglaProgramoteca": "RV2",
    "nome": "Sigla incluída pelo Incode",
    "dominioFuncional": "",
    "mainframe": "Cobol   |   JCL",
    "distribuidoWebUnix": ""
  },
  {
    "id": "132",
    "siglaRede": "RW",
    "siglaProgramoteca": "RW1",
    "nome": "Gerenciador de Senhas",
    "dominioFuncional": "Suporte",
    "mainframe": "Cobol   |   DB2   |   JCL   |   Tela Cics",
    "distribuidoWebUnix": ""
  },
  {
    "id": "133",
    "siglaRede": "SA",
    "siglaProgramoteca": "SA6",
    "nome": "Sigla incluída pelo Incode",
    "dominioFuncional": "",
    "mainframe": "Pli",
    "distribuidoWebUnix": ""
  },
  {
    "id": "134",
    "siglaRede": "SAP",
    "siglaProgramoteca": "SA5",
    "nome": "Sistema ERP",
    "dominioFuncional": "Financeiro",
    "mainframe": "",
    "distribuidoWebUnix": ""
  },
  {
    "id": "135",
    "siglaRede": "SI",
    "siglaProgramoteca": "SI3",
    "nome": "Sigla incluída pelo Incode",
    "dominioFuncional": "",
    "mainframe": "Assembler   |   JCL   |   Tela Cics",
    "distribuidoWebUnix": ""
  },
  {
    "id": "136",
    "siglaRede": "SM",
    "siglaProgramoteca": "SM3",
    "nome": "Sas Marketing Automation",
    "dominioFuncional": "Business Intelligence",
    "mainframe": "JCL",
    "distribuidoWebUnix": "C Sharp   |   Shell Script   |   Sql   |   XML"
  },
  {
    "id": "137",
    "siglaRede": "SN",
    "siglaProgramoteca": "SN2",
    "nome": "Intranet Institucional e Workflow Corporativo",
    "dominioFuncional": "Suporte",
    "mainframe": "",
    "distribuidoWebUnix": ""
  },
  {
    "id": "138",
    "siglaRede": "SO",
    "siglaProgramoteca": "SO3",
    "nome": "Sigla incluída pelo Incode",
    "dominioFuncional": "",
    "mainframe": "Cobol",
    "distribuidoWebUnix": ""
  },
  {
    "id": "139",
    "siglaRede": "SP",
    "siglaProgramoteca": "SP6",
    "nome": "Simulador De Operações Com Parceiros",
    "dominioFuncional": "Desenvolvimento",
    "mainframe": "",
    "distribuidoWebUnix": ""
  },
  {
    "id": "140",
    "siglaRede": "SQ2",
    "siglaProgramoteca": "SQ2",
    "nome": "SONARQUBE - Analise estática de qualidade",
    "dominioFuncional": "Desenvolvimento",
    "mainframe": "",
    "distribuidoWebUnix": ""
  },
  {
    "id": "141",
    "siglaRede": "SS",
    "siglaProgramoteca": "SS2",
    "nome": "Siteseeing",
    "dominioFuncional": "Infraestrutura",
    "mainframe": "",
    "distribuidoWebUnix": ""
  },
  {
    "id": "142",
    "siglaRede": "ST4",
    "siglaProgramoteca": "ST4",
    "nome": "Solução antifraude para e-commerce",
    "dominioFuncional": "Risco e Fraude",
    "mainframe": "",
    "distribuidoWebUnix": ""
  },
  {
    "id": "143",
    "siglaRede": "SV",
    "siglaProgramoteca": "SV3",
    "nome": "Sigla incluída pelo Incode",
    "dominioFuncional": "",
    "mainframe": "Cobol   |   Tela Cics",
    "distribuidoWebUnix": ""
  },
  {
    "id": "144",
    "siglaRede": "SW",
    "siglaProgramoteca": "SW1",
    "nome": "Switch De Transações",
    "dominioFuncional": "Captura",
    "mainframe": "Cobol   |   DB2   |   Easytrieve   |   JCL   |   Pli",
    "distribuidoWebUnix": "Asp   |   Sql   |   Visual Basic"
  },
  {
    "id": "145",
    "siglaRede": "SW5",
    "siglaProgramoteca": "SW5",
    "nome": "Serviços de Consultas de Transações Financeiras",
    "dominioFuncional": "Captura",
    "mainframe": "",
    "distribuidoWebUnix": ""
  },
  {
    "id": "146",
    "siglaRede": "SW75",
    "siglaProgramoteca": "SW3",
    "nome": "Switch 75",
    "dominioFuncional": "Captura",
    "mainframe": "",
    "distribuidoWebUnix": "Awk   |   C Ansi   |   Cpp   |   Java   |   Perl   |   Shell Script   |   Sql   |   XML"
  },
  {
    "id": "147",
    "siglaRede": "SWO71",
    "siglaProgramoteca": "SW4",
    "nome": "Switch 71",
    "dominioFuncional": "Captura",
    "mainframe": "",
    "distribuidoWebUnix": "Awk   |   C Ansi   |   Cpp   |   Html   |   Java Script   |   Perl   |   Shell Script   |   Sql   |   XML"
  },
  {
    "id": "148",
    "siglaRede": "SWw",
    "siglaProgramoteca": "SW2",
    "nome": "Camada De Apresentação Para Captura Internet",
    "dominioFuncional": "Canais Internos",
    "mainframe": "",
    "distribuidoWebUnix": "ASP.Net   |   C Sharp   |   Estilo   |   Html   |   Java Script   |   Sql   |   XML"
  },
  {
    "id": "149",
    "siglaRede": "SZ",
    "siglaProgramoteca": "SZ1",
    "nome": "Simulador de Transação",
    "dominioFuncional": "Desenvolvimento",
    "mainframe": "",
    "distribuidoWebUnix": "ASP.Net   |   C Ansi   |   C Sharp   |   Cpp   |   Estilo   |   Html   |   Java Script   |   VB.Net   |   XML"
  },
  {
    "id": "150",
    "siglaRede": "TA",
    "siglaProgramoteca": "TA1",
    "nome": "Plataforma de Suporte à Telecarga e Inicialização",
    "dominioFuncional": "Logística",
    "mainframe": "",
    "distribuidoWebUnix": "C Ansi   |   C Sharp   |   Cpp   |   Estilo   |   Java   |   Java Script   |   Lua   |   Sql   |   Vb Script   |   XML"
  },
  {
    "id": "151",
    "siglaRede": "TC",
    "siglaProgramoteca": "TC2",
    "nome": "Plataforma de Força de Campo",
    "dominioFuncional": "Logística",
    "mainframe": "",
    "distribuidoWebUnix": ""
  },
  {
    "id": "152",
    "siglaRede": "TD",
    "siglaProgramoteca": "TD1",
    "nome": "TD - Tedesco - Sistema do Jurídico",
    "dominioFuncional": "Não Selecionado",
    "mainframe": "",
    "distribuidoWebUnix": ""
  },
  {
    "id": "153",
    "siglaRede": "TG",
    "siglaProgramoteca": "TG1",
    "nome": "Gerenciador De Tecnologia",
    "dominioFuncional": "Logística",
    "mainframe": "Cobol   |   Easytrieve   |   JCL",
    "distribuidoWebUnix": "Asp   |   ASP.Net   |   C Ansi   |   C Sharp   |   Cobol Unix/Windows   |   Estilo   |   Html   |   Java Script   |   Shell Script   |   Sql   |   Visual Basic   |   XML"
  },
  {
    "id": "154",
    "siglaRede": "TGA",
    "siglaProgramoteca": "TG2",
    "nome": "Gerenciador de Ativo",
    "dominioFuncional": "Logística",
    "mainframe": "",
    "distribuidoWebUnix": "C Sharp   |   Estilo   |   Html   |   Java   |   Java Script   |   Perl   |   Shell Script   |   Sql   |   XML"
  },
  {
    "id": "155",
    "siglaRede": "TN",
    "siglaProgramoteca": "TN1",
    "nome": "Tabelas Financeiras",
    "dominioFuncional": "Corporativo",
    "mainframe": "Cobol   |   DB2   |   JCL   |   Tela Cics",
    "distribuidoWebUnix": ""
  },
  {
    "id": "156",
    "siglaRede": "TO",
    "siglaProgramoteca": "TO1",
    "nome": "Captura Offline em Lote",
    "dominioFuncional": "Captura",
    "mainframe": "Cobol   |   DB2   |   Easytrieve   |   JCL   |   Pli   |   Tela Cics",
    "distribuidoWebUnix": ""
  },
  {
    "id": "157",
    "siglaRede": "TV",
    "siglaProgramoteca": "TV2",
    "nome": "Plataforma de Força de Vendas",
    "dominioFuncional": "Estabelecimentos",
    "mainframe": "",
    "distribuidoWebUnix": "XML"
  },
  {
    "id": "158",
    "siglaRede": "UK",
    "siglaProgramoteca": "UK1",
    "nome": "Propostas Comerciais",
    "dominioFuncional": "Comercial",
    "mainframe": "Cobol   |   DB2   |   JCL",
    "distribuidoWebUnix": "ASP.Net   |   C Sharp   |   Estilo   |   Java   |   Java Script   |   Shell Script   |   Sql   |   XML"
  },
  {
    "id": "159",
    "siglaRede": "UP",
    "siglaProgramoteca": "UP1",
    "nome": "Gestão Comercial de Produtos, Serviços, Preços e Ofertas",
    "dominioFuncional": "Comercial",
    "mainframe": "Cobol   |   DB2   |   JCL",
    "distribuidoWebUnix": "ASP.Net   |   C Sharp   |   Estilo   |   Html   |   Java   |   Java Script   |   Shell Script   |   Sql   |   XML"
  },
  {
    "id": "160",
    "siglaRede": "UW2",
    "siglaProgramoteca": "UW2",
    "nome": "Loja Rede",
    "dominioFuncional": "Comercial",
    "mainframe": "",
    "distribuidoWebUnix": ""
  },
  {
    "id": "162",
    "siglaRede": "VO",
    "siglaProgramoteca": "VO1",
    "nome": "Captura Online Voucher",
    "dominioFuncional": "Processamento",
    "mainframe": "Cobol   |   DB2   |   JCL   |   Pli   |   Tela Cics",
    "distribuidoWebUnix": ""
  },
  {
    "id": "163",
    "siglaRede": "WA",
    "siglaProgramoteca": "WA1",
    "nome": "Cartas Extratos e Comunicações",
    "dominioFuncional": "Interface Relacionamento",
    "mainframe": "Cobol   |   DB2   |   JCL   |   Tela Cics",
    "distribuidoWebUnix": "Asp   |   ASP.Net   |   C Sharp   |   Cobol Unix/Windows   |   Estilo   |   Html   |   Java   |   Java Script   |   Shell Script   |   Sql   |   VB.Net   |   Visual Basic   |   XML"
  },
  {
    "id": "164",
    "siglaRede": "WB",
    "siglaProgramoteca": "WB1",
    "nome": "Boletim De Proteção Acquirer",
    "dominioFuncional": "Risco e Fraude",
    "mainframe": "Cobol   |   DB2   |   Easytrieve   |   JCL   |   Pli   |   Tela Cics",
    "distribuidoWebUnix": ""
  },
  {
    "id": "165",
    "siglaRede": "WF",
    "siglaProgramoteca": "WF1",
    "nome": "Workflow de Filiação",
    "dominioFuncional": "Estabelecimentos",
    "mainframe": "Cobol   |   DB2   |   JCL   |   Tela Cics",
    "distribuidoWebUnix": "Asp   |   ASP.Net   |   C Sharp   |   Cobol Unix/Windows   |   Delphi   |   Estilo   |   Java   |   Java Script   |   Shell Script   |   Sql   |   Visual Basic   |   XML"
  },
  {
    "id": "166",
    "siglaRede": "WL",
    "siglaProgramoteca": "WL2",
    "nome": "Aplicativo Mobile - Carteira Digital",
    "dominioFuncional": "Meios de Relacionamento",
    "mainframe": "",
    "distribuidoWebUnix": ""
  },
  {
    "id": "167",
    "siglaRede": "WM",
    "siglaProgramoteca": "WM1",
    "nome": "Gerenciamento de Workflow",
    "dominioFuncional": "Interface Relacionamento",
    "mainframe": "Cobol   |   DB2   |   JCL   |   Tela Cics",
    "distribuidoWebUnix": "Asp   |   C Ansi   |   C Sharp   |   Cobol Unix/Windows   |   Cpp   |   Estilo   |   Html   |   Java   |   Java Script   |   Shell Script   |   Sql   |   VB.Net   |   Visual Basic   |   XML"
  },
  {
    "id": "168",
    "siglaRede": "WT",
    "siglaProgramoteca": "WT1",
    "nome": "Sistema - Carteira Digital",
    "dominioFuncional": "Interface Relacionamento",
    "mainframe": "",
    "distribuidoWebUnix": "Estilo   |   Html   |   Java   |   Java Script   |   Shell Script   |   Sql   |   XML"
  },
  {
    "id": "169",
    "siglaRede": "XA",
    "siglaProgramoteca": "XA1",
    "nome": "Chargeback de Transações De Crédito",
    "dominioFuncional": "Processamento",
    "mainframe": "Assembler   |   Cobol   |   DB2   |   JCL   |   Pli   |   Tela Cics",
    "distribuidoWebUnix": ""
  },
  {
    "id": "170",
    "siglaRede": "XB",
    "siglaProgramoteca": "XB1",
    "nome": "Chargeback Transações de Crédito e Débito",
    "dominioFuncional": "Processamento",
    "mainframe": "Cobol   |   DB2   |   JCL",
    "distribuidoWebUnix": "Asp   |   ASP.Net   |   C Sharp   |   Cpp   |   Estilo   |   Java Script   |   Shell Script   |   XML"
  },
  {
    "id": "171",
    "siglaRede": "XD",
    "siglaProgramoteca": "XD1",
    "nome": "Chargeback De Transações De Débito",
    "dominioFuncional": "Processamento",
    "mainframe": "Cobol   |   DB2   |   JCL   |   Tela Cics",
    "distribuidoWebUnix": ""
  },
  {
    "id": "172",
    "siglaRede": "XE",
    "siglaProgramoteca": "XE1",
    "nome": "Tratamento de Exceções",
    "dominioFuncional": "Bandeiras, Emissores e Parceir",
    "mainframe": "Cobol   |   DB2   |   JCL",
    "distribuidoWebUnix": "ASP.Net   |   C Sharp   |   Estilo   |   Java Script   |   XML"
  },
  {
    "id": "173",
    "siglaRede": "XM",
    "siglaProgramoteca": "XM1",
    "nome": "Canal de Email",
    "dominioFuncional": "Interface Relacionamento",
    "mainframe": "",
    "distribuidoWebUnix": "Asp   |   ASP.Net   |   C Sharp   |   Estilo   |   Html   |   Java Script   |   Sql   |   VB.Net   |   Visual Basic   |   XML"
  },
  {
    "id": "174",
    "siglaRede": "XR",
    "siglaProgramoteca": "XR1",
    "nome": "Copia De Arq. Prod. P/ Amb. De Test",
    "dominioFuncional": "Desenvolvimento",
    "mainframe": "Assembler   |   Cobol   |   Easytrieve   |   JCL   |   Pli   |   Tela Cics",
    "distribuidoWebUnix": ""
  },
  {
    "id": "175",
    "siglaRede": "XRT",
    "siglaProgramoteca": "XR2",
    "nome": "Sistema da Tesouraria",
    "dominioFuncional": "Financeiro",
    "mainframe": "",
    "distribuidoWebUnix": ""
  },
  {
    "id": "176",
    "siglaRede": "YU3",
    "siglaProgramoteca": "YU3",
    "nome": "Aplicativos Utilitários Poynt",
    "dominioFuncional": "Meios de Relacionamento",
    "mainframe": "",
    "distribuidoWebUnix": ""
  },
  {
    "id": "177",
    "siglaRede": "ZA",
    "siglaProgramoteca": "XA2",
    "nome": "Sigla incluída pelo Incode",
    "dominioFuncional": "",
    "mainframe": "Cobol   |   Pli",
    "distribuidoWebUnix": ""
  },
  {
    "id": "179",
    "siglaRede": "ZP",
    "siglaProgramoteca": "ZP1",
    "nome": "Cobrança De Serviços A Estebelecimentos",
    "dominioFuncional": "Liquidação",
    "mainframe": "Cobol   |   DB2   |   JCL   |   Tela Cics",
    "distribuidoWebUnix": "Asp   |   ASP.Net   |   C Sharp   |   Cobol Unix/Windows   |   Estilo   |   Html   |   Java   |   Java Script   |   Shell Script   |   VB.Net   |   Visual Basic   |   XML"
  },
  {
    "id": "180",
    "siglaRede": "ZW",
    "siglaProgramoteca": "ZX7",
    "nome": "Sigla incluída pelo Incode",
    "dominioFuncional": "",
    "mainframe": "Assembler   |   Cobol   |   Tela Cics",
    "distribuidoWebUnix": "Sql"
  },
  {
    "id": "181",
    "siglaRede": "ZWa",
    "siglaProgramoteca": "ZW3",
    "nome": "Criptografia Redecard (Syncpass)",
    "dominioFuncional": "Suporte",
    "mainframe": "",
    "distribuidoWebUnix": ""
  },
  {
    "id": "182",
    "siglaRede": "ZX",
    "siglaProgramoteca": "ZX5",
    "nome": "Apuração De Valores A Faturar Sobre Serviços Prestados Às Bandeiras",
    "dominioFuncional": "Liquidação",
    "mainframe": "Cobol   |   DB2   |   JCL",
    "distribuidoWebUnix": "Asp   |   ASP.Net   |   C Sharp   |   Estilo   |   Html   |   Java Script   |   XML"
  },
  {
    "id": "70",
    "siglaRede": "KE3",
    "siglaProgramoteca": "KE3",
    "nome": "Conciliador Financeiro e de Serviços",
    "dominioFuncional": "Meios de Relacionamento",
    "mainframe": "",
    "distribuidoWebUnix": "Estilo   |   Html   |   Java   |   Java Script   |   Shell Script   |   Sql   |   XML"
  },
  {
    "id": "161",
    "siglaRede": "UZ",
    "siglaProgramoteca": "UZ1",
    "nome": "Contratos com Estabelecimentos Comerciais",
    "dominioFuncional": "Estabelecimentos",
    "mainframe": "",
    "distribuidoWebUnix": "C Sharp   |   Shell Script   |   Sql   |   XML"
  }
]